<svg version="1.2" xmlns="http://www.w3.org/2000/svg" viewBox="0 0 637 215" width="637" height="215">
	<title>logo-thelios-hr-svg</title>
	<defs>
		<clipPath clipPathUnits="userSpaceOnUse" id="cp1">
			<path d="m58.8 64.92c25.98 0 47.04 21.06 47.04 47.04 0 25.98-21.06 47.04-47.04 47.04-25.98 0-47.04-21.06-47.04-47.04 0-25.98 21.06-47.04 47.04-47.04z"/>
		</clipPath>
		<clipPath clipPathUnits="userSpaceOnUse" id="cp2">
			<path d="m58.8 64.92c25.98 0 47.04 21.06 47.04 47.04 0 25.98-21.06 47.04-47.04 47.04-25.98 0-47.04-21.06-47.04-47.04 0-25.98 21.06-47.04 47.04-47.04z"/>
		</clipPath>
		<clipPath clipPathUnits="userSpaceOnUse" id="cp3">
			<path d="m58.8 64.92c25.98 0 47.04 21.06 47.04 47.04 0 25.98-21.06 47.04-47.04 47.04-25.98 0-47.04-21.06-47.04-47.04 0-25.98 21.06-47.04 47.04-47.04z"/>
		</clipPath>
		<clipPath clipPathUnits="userSpaceOnUse" id="cp4">
			<path d="m58.8 64.92c25.98 0 47.04 21.06 47.04 47.04 0 25.98-21.06 47.04-47.04 47.04-25.98 0-47.04-21.06-47.04-47.04 0-25.98 21.06-47.04 47.04-47.04z"/>
		</clipPath>
		<clipPath clipPathUnits="userSpaceOnUse" id="cp5">
			<path d="m58.8 64.92c25.98 0 47.04 21.06 47.04 47.04 0 25.98-21.06 47.04-47.04 47.04-25.98 0-47.04-21.06-47.04-47.04 0-25.98 21.06-47.04 47.04-47.04z"/>
		</clipPath>
		<clipPath clipPathUnits="userSpaceOnUse" id="cp6">
			<path d="m58.8 64.92c25.98 0 47.04 21.06 47.04 47.04 0 25.98-21.06 47.04-47.04 47.04-25.98 0-47.04-21.06-47.04-47.04 0-25.98 21.06-47.04 47.04-47.04z"/>
		</clipPath>
		<clipPath clipPathUnits="userSpaceOnUse" id="cp7">
			<path d="m58.8 64.92c25.98 0 47.04 21.06 47.04 47.04 0 25.98-21.06 47.04-47.04 47.04-25.98 0-47.04-21.06-47.04-47.04 0-25.98 21.06-47.04 47.04-47.04z"/>
		</clipPath>
		<clipPath clipPathUnits="userSpaceOnUse" id="cp8">
			<path d="m58.8 64.92c25.98 0 47.04 21.06 47.04 47.04 0 25.98-21.06 47.04-47.04 47.04-25.98 0-47.04-21.06-47.04-47.04 0-25.98 21.06-47.04 47.04-47.04z"/>
		</clipPath>
		<clipPath clipPathUnits="userSpaceOnUse" id="cp9">
			<path d="m58.8 64.92c25.98 0 47.04 21.06 47.04 47.04 0 25.98-21.06 47.04-47.04 47.04-25.98 0-47.04-21.06-47.04-47.04 0-25.98 21.06-47.04 47.04-47.04z"/>
		</clipPath>
		<clipPath clipPathUnits="userSpaceOnUse" id="cp10">
			<path d="m58.8 64.92c25.98 0 47.04 21.06 47.04 47.04 0 25.98-21.06 47.04-47.04 47.04-25.98 0-47.04-21.06-47.04-47.04 0-25.98 21.06-47.04 47.04-47.04z"/>
		</clipPath>
		<clipPath clipPathUnits="userSpaceOnUse" id="cp11">
			<path d="m58.8 64.92c25.98 0 47.04 21.06 47.04 47.04 0 25.98-21.06 47.04-47.04 47.04-25.98 0-47.04-21.06-47.04-47.04 0-25.98 21.06-47.04 47.04-47.04z"/>
		</clipPath>
		<clipPath clipPathUnits="userSpaceOnUse" id="cp12">
			<path d="m58.8 64.92c25.98 0 47.04 21.06 47.04 47.04 0 25.98-21.06 47.04-47.04 47.04-25.98 0-47.04-21.06-47.04-47.04 0-25.98 21.06-47.04 47.04-47.04z"/>
		</clipPath>
		<clipPath clipPathUnits="userSpaceOnUse" id="cp13">
			<path d="m58.8 64.92c25.98 0 47.04 21.06 47.04 47.04 0 25.98-21.06 47.04-47.04 47.04-25.98 0-47.04-21.06-47.04-47.04 0-25.98 21.06-47.04 47.04-47.04z"/>
		</clipPath>
		<clipPath clipPathUnits="userSpaceOnUse" id="cp14">
			<path d="m58.8 64.92c25.98 0 47.04 21.06 47.04 47.04 0 25.98-21.06 47.04-47.04 47.04-25.98 0-47.04-21.06-47.04-47.04 0-25.98 21.06-47.04 47.04-47.04z"/>
		</clipPath>
	</defs>
	<style>
		.s0 { fill: #2269b2 } 
	</style>
	<filter id="f0">
		<feFlood flood-color="#ffffff" flood-opacity="1" />
		<feBlend mode="normal" in2="SourceGraphic"/>
		<feComposite in2="SourceAlpha" operator="in" />
	</filter>
	<g id="Layer 1" filter="url(#f0)">
		<g id="&lt;Group&gt;">
			<g id="&lt;Group&gt;">
				<g id="Clip-Path: &lt;Clip Group&gt;" clip-path="url(#cp1)">
					<g id="&lt;Clip Group&gt;">
						<path id="&lt;Path&gt;" class="s0" d="m88.4 60.7l-56.5 15.7-0.9 0.2-18.7 5.2c-0.9 0.2-1.4 1.2-1.2 2.1 0.3 0.9 1.1 1.3 2.1 1.1l18.7-5.2 0.9-0.2 56.5-15.7c0.9-0.3 1.3-1.1 1.1-2.1-0.2-0.9-1.1-1.4-2-1.1z"/>
					</g>
				</g>
				<g id="Clip-Path: &lt;Clip Group&gt;" clip-path="url(#cp2)">
					<g id="&lt;Clip Group&gt;">
						<path id="&lt;Path&gt;" class="s0" d="m90.8 69.5l-56.5 15.7-0.9 0.2-18.7 5.2c-0.9 0.2-1.3 1.1-1.1 2.1 0.2 0.9 1.1 1.3 2.1 1.1l18.7-5.2 0.9-0.2 56.5-15.7c0.8-0.3 1.3-1.1 1.1-2.1-0.3-0.9-1.2-1.4-2.1-1.1z"/>
					</g>
				</g>
				<g id="Clip-Path: &lt;Clip Group&gt;" clip-path="url(#cp3)">
					<g id="&lt;Clip Group&gt;">
						<path id="&lt;Path&gt;" class="s0" d="m98.8 76.7l-62 17.2-0.9 0.2-29.5 8.2c-0.9 0.2-1.4 1.1-1.1 2.1 0.2 0.8 1.1 1.3 2.1 1.1l29.4-8.2 0.9-0.2 62-17.2c0.9-0.3 1.3-1.1 1.1-2.1-0.2-0.9-1.1-1.4-2-1.1z"/>
					</g>
				</g>
				<g id="Clip-Path: &lt;Clip Group&gt;" clip-path="url(#cp4)">
					<g id="&lt;Clip Group&gt;">
						<path id="&lt;Path&gt;" class="s0" d="m103.7 84.8l-64.5 17.8-0.9 0.2-30.1 8.4c-0.8 0.2-1.3 1.1-1.1 2 0.3 0.9 1.1 1.4 2.1 1.2l30.1-8.4 0.9-0.2 64.4-17.9c0.8-0.3 1.3-1.1 1.1-2.1-0.3-0.8-1.1-1.3-2-1z"/>
					</g>
				</g>
				<g id="Clip-Path: &lt;Clip Group&gt;" clip-path="url(#cp5)">
					<g id="&lt;Clip Group&gt;">
						<path id="&lt;Path&gt;" class="s0" d="m110.2 102.4l-66 18.3-0.8 0.2-30.9 8.6c-0.9 0.2-1.4 1.1-1.1 2.1 0.2 0.8 1.1 1.3 2 1.1l30.9-8.6 0.9-0.2 66-18.3c0.9-0.3 1.4-1.2 1.1-2.1-0.3-0.9-1.2-1.4-2.1-1.1z"/>
					</g>
				</g>
				<g id="Clip-Path: &lt;Clip Group&gt;" clip-path="url(#cp6)">
					<g id="&lt;Clip Group&gt;">
						<path id="&lt;Path&gt;" class="s0" d="m105.7 123l-56.5 15.7-0.9 0.2-23.7 6.6c-0.9 0.2-1.4 1.1-1.2 2.1 0.3 0.8 1.2 1.3 2.1 1.1l23.8-6.6 0.9-0.2 56.4-15.7c0.9-0.2 1.4-1.1 1.2-2.1-0.4-0.9-1.2-1.3-2.1-1.1z"/>
					</g>
				</g>
				<g id="Clip-Path: &lt;Clip Group&gt;" clip-path="url(#cp7)">
					<g id="&lt;Clip Group&gt;">
						<path id="&lt;Path&gt;" class="s0" d="m107.8 130.4l-56.5 15.7-0.9 0.3-18.7 5.2c-0.9 0.2-1.4 1.1-1.1 2 0.2 0.9 1.1 1.4 2 1.2l18.8-5.2 0.8-0.3 56.5-15.7c0.9-0.2 1.4-1.1 1.1-2-0.3-0.8-1.2-1.4-2-1.2z"/>
					</g>
				</g>
				<g id="Clip-Path: &lt;Clip Group&gt;" clip-path="url(#cp8)">
					<g id="&lt;Clip Group&gt;">
						<path id="&lt;Path&gt;" class="s0" d="m109.8 137.9l-56.4 15.7-0.9 0.2-18.7 5.2c-0.9 0.2-1.4 1.1-1.2 2.1 0.3 0.9 1.2 1.3 2.1 1.1l18.7-5.2 0.9-0.2 56.5-15.7c0.9-0.3 1.4-1.1 1.1-2.1-0.3-0.8-1.2-1.4-2.1-1.1z"/>
					</g>
				</g>
				<g id="Clip-Path: &lt;Clip Group&gt;" clip-path="url(#cp9)">
					<g id="&lt;Clip Group&gt;">
						<path id="&lt;Path&gt;" class="s0" d="m72.4 103.2l-56.5 15.6-0.9 0.3-18.7 5.2c-0.9 0.2-1.3 1.1-1.1 2.1 0.2 0.8 1.1 1.3 2.1 1.1l18.7-5.2 0.9-0.3 56.5-15.6c0.8-0.3 1.3-1.2 1.1-2.1-0.3-0.9-1.2-1.4-2.1-1.1z"/>
					</g>
				</g>
				<g id="Clip-Path: &lt;Clip Group&gt;" clip-path="url(#cp10)">
					<g id="&lt;Clip Group&gt;">
						<path id="&lt;Path&gt;" class="s0" d="m157.3 79.6l-56.5 15.6-0.9 0.3-18.7 5.2c-0.9 0.2-1.4 1.1-1.1 2.1 0.2 0.8 1.1 1.3 2.1 1.1l18.7-5.2 0.9-0.3 56.4-15.6c0.9-0.3 1.4-1.2 1.2-2.1-0.3-0.9-1.2-1.4-2.1-1.1z"/>
					</g>
				</g>
				<g id="Clip-Path: &lt;Clip Group&gt;" clip-path="url(#cp11)">
					<g id="&lt;Clip Group&gt;">
						<path id="&lt;Path&gt;" class="s0" d="m128 107.6l-56.5 15.7-0.9 0.3-18.7 5.2c-0.9 0.2-1.3 1.1-1.1 2 0.2 0.9 1.1 1.4 2.1 1.2l18.7-5.2 0.9-0.3 56.5-15.7c0.8-0.2 1.3-1.1 1.1-2-0.3-0.8-1.2-1.4-2.1-1.2z"/>
					</g>
				</g>
				<g id="Clip-Path: &lt;Clip Group&gt;" clip-path="url(#cp12)">
					<g id="&lt;Clip Group&gt;">
						<path id="&lt;Path&gt;" class="s0" d="m46.4 130.3l-11.5 3.2-0.9 0.2-2 0.6c-0.9 0.2-1.4 1.1-1.1 2.1 0.2 0.8 1.1 1.3 2.1 1.1l1.9-0.6 0.9-0.2 11.5-3.2c0.9-0.3 1.3-1.1 1.1-2.1-0.2-0.8-1.1-1.4-2-1.1z"/>
					</g>
				</g>
				<g id="Clip-Path: &lt;Clip Group&gt;" clip-path="url(#cp13)">
					<g id="&lt;Clip Group&gt;">
						<path id="&lt;Path&gt;" class="s0" d="m26.8 135.7l-11.5 3.2-0.9 0.3-1.9 0.5c-0.9 0.3-1.4 1.1-1.1 2.1 0.2 0.9 1.1 1.4 2 1.1l2-0.5 0.8-0.3 11.6-3.2c0.8-0.2 1.3-1.1 1.1-2.1-0.3-0.8-1.2-1.3-2.1-1.1z"/>
					</g>
				</g>
				<g id="Clip-Path: &lt;Clip Group&gt;" clip-path="url(#cp14)">
					<g id="&lt;Clip Group&gt;">
						<path id="&lt;Compound Path&gt;" fill-rule="evenodd" class="s0" d="m105 99.2c7 25.5-7.9 51.9-33.3 58.9-25.5 7.1-51.9-7.8-58.9-33.3-7-25.4 7.8-51.8 33.3-58.8 25.4-7.2 51.7 7.7 58.9 33.2zm-4 1c-6.4-23.3-30.6-37-54-30.5-23.2 6.5-36.9 30.7-30.4 54 6.4 23.3 30.6 37 54 30.5 23.3-6.5 36.9-30.6 30.4-54z"/>
					</g>
				</g>
			</g>
			<g id="&lt;Group&gt;">
				<g id="&lt;Group&gt;">
					<path id="THELIOS" fill-rule="evenodd" class="s0" d="m130.6 66.1h62.9v9.9h-25.3v83h-12.2v-83h-25.4zm137.3 50.8h-47.4v42.1h-12.1v-92.9h12.1v40.8h47.4v-40.8h12.1v92.9h-12.1zm82.6-40.9h-37.9v31h33.9v10h-33.9v32h37.9v10h-50v-93h50zm30.5-9.9v83.1h32.5v9.8h-44.6v-92.9zm45.5 0h12.1v92.9h-12.1zm74.9 93.9c-26.1 0-46.7-19.6-46.7-47.5 0-27.8 20.6-47.4 46.7-47.4 26.2 0 46.6 19.6 46.6 47.4 0 27.9-20.4 47.5-46.6 47.5zm0-10.6c19.6 0 34.2-14.2 34.2-36.9 0-22.8-14.6-36.9-34.2-36.9-19.6 0-34.3 14.1-34.3 36.9 0 22.7 14.7 36.9 34.3 36.9zm92.1 10.6c-18.7 0-31.9-10.4-32.2-25.8h13c0.8 7.8 6.2 15.5 19.2 15.5 11.7 0 18.6-6.7 18.6-15.5 0-25-50.2-9-50.2-43.5 0-15.4 12.4-25.8 30.8-25.8 17.7 0 29.3 9.8 30.7 23.9h-13.3c-0.8-6.3-6.6-13.3-18-13.5-10-0.2-17.8 5-17.8 15 0 23.9 50.1 9 50.1 43.4 0 13.2-10.8 26.3-30.9 26.3z"/>
				</g>
			</g>
		</g>
	</g>
</svg>