<?xml version="1.0" encoding="UTF-8"?>
<!DOCTYPE svg PUBLIC "-//W3C//DTD SVG 1.1//EN" "http://www.w3.org/Graphics/SVG/1.1/DTD/svg11.dtd">
<!-- Creator: CorelDRAW 2019 (64-Bit) -->
<svg xmlns="http://www.w3.org/2000/svg" xml:space="preserve" width="81.3413mm" height="63.3229mm" version="1.1" style="shape-rendering:geometricPrecision; text-rendering:geometricPrecision; image-rendering:optimizeQuality; fill-rule:evenodd; clip-rule:evenodd"
viewBox="0 0 3589.57 2794.42"
 xmlns:xlink="http://www.w3.org/1999/xlink">
 <defs>
  <style type="text/css">
   <![CDATA[
    .fil1 {fill:#2269B2}
    .fil0 {fill:#2269B2}
    .fil2 {fill:#2269B2;fill-rule:nonzero}
   ]]>
  </style>
 </defs>
 <g id="Layer_x0020_1">
  <metadata id="CorelCorpID_0Corel-Layer"/>
  <path class="fil0" d="M1731.53 2.48c-206.63,14.11 -413.51,87.33 -567.07,209.4 -149.02,118.46 -260.74,252.68 -335.94,443.9 -52.06,132.37 -81.67,288.35 -71.46,449.4 34.79,548.83 503.38,1014.09 1101.88,973.9 557.05,-37.4 1011.17,-506.28 973.37,-1103.15 -34.69,-547.63 -505.02,-1014.14 -1100.78,-973.45zm-474.52 254.88l639.49 -158.54c-214.18,-29.64 -492.05,43.71 -639.49,158.54zm558.3 1728.1l412.4 -106.6c-81.73,72.39 -282.9,123.51 -412.4,106.6zm-353.09 -555.43l-267.43 64.45c-22.84,5.5 -40.76,26.6 -36.29,51.5 4.5,25.04 37.81,31.39 65.71,24.37l264.7 -66.38c68.07,-17.07 48.51,-93.91 -26.69,-73.94zm-66.79 481.13c6.43,14.24 140.54,65.77 167.43,59.01l880.43 -221.5c31.31,-7.88 110.25,-106.02 118.67,-127.87l-1166.53 290.37zm-205.89 -124.51c15.05,15.41 89.17,71.21 104.12,67.45l1328.9 -333.82c11.5,-2.89 55.89,-94.59 57.64,-110.49l-1490.65 376.85zm-203.23 -1266.86l1271.11 -318.84c-9.84,-15.56 -164.66,-79.49 -182.19,-75.14l-965.89 239.21c-50.72,49.9 -92.58,102.34 -123.02,154.77zm-102.09 230.72l1581.78 -394.55c-6.92,-15.37 -99.65,-95.98 -114.67,-92.24l-1407.29 350.78c-7.93,1.97 -55.21,108.62 -59.82,136.02zm-40.77 214.81l1764.73 -439.95c-12.46,-20.3 -75.06,-104.12 -85,-101.61l-1658.75 417.15c-11.86,20.44 -19.53,92.35 -20.98,124.41zm77.73 478.34c7.19,20.03 49.19,94.16 62.03,108.26l70.32 -19.15c53.68,-14.62 77.28,47.02 33.57,68.35 -19.33,9.43 -42.62,13.18 -55.26,20.7 10.09,19.55 86.5,96.51 91.95,95.12l1593.39 -407c5.3,-9.52 26.52,-103.01 28.74,-121l-1057.83 268.35c-59.67,14.97 -76.83,-4.2 -79.73,-26.35 -2.59,-19.76 2.65,-41.19 54.67,-54l1091.41 -278.35c5.19,-38.76 8.78,-79.11 1.2,-116.27 -28,-1.21 -1824.46,454.83 -1834.46,461.34zm-73.06 -272.93c33.49,-2.95 1035.9,-259.27 1147.18,-287.34 43.63,-11 109.74,-35.73 124.5,12.73 8.03,34.19 -34.95,45.69 -94.99,61.27l-1163.32 295.41c3.7,31.26 23.71,97.51 32.98,110.65l1849.88 -462.68c1.26,-22.84 -16.34,-99.61 -24.76,-118.22l-354.9 89.23c-55.22,13.88 -89.16,16.7 -98.39,-14.01 -9.94,-33.14 15.06,-45.77 78.89,-62.02l351.03 -91.51c-6.71,-23.64 -35.62,-86.84 -48.2,-104.77l-1807.97 449.94c-3.5,40.63 0.2,81.62 8.07,121.3z"/>
 </g>
 <g id="Layer_x0020_1_0">
  <metadata id="CorelCorpID_1Corel-Layer"/>
  <g id="_835189024">
   <path class="fil1" d="M-0 2732.93l41.93 -92.71c44.73,32.61 111.35,55.44 175.17,55.44 72.68,0 102.49,-24.22 102.49,-56.83 0,-99.23 -308.88,-31.21 -308.88,-228.28 0,-90.38 72.68,-165.39 223.62,-165.39 66.62,0 135.11,15.84 184.49,47.05l-37.74 93.18c-49.38,-27.96 -100.16,-41.93 -147.22,-41.93 -72.68,0 -101.1,27.49 -101.1,60.56 0,97.84 308.88,30.29 308.88,225.49 0,88.52 -73.61,164.46 -225.49,164.46 -84.33,0.46 -169.11,-24.69 -216.17,-61.03z"/>
   <path class="fil1" d="M985.8 2446.88c0,118.33 -88.52,191.94 -230.61,191.94l-107.16 0 0 146.29 -122.53 0 0 -531.1 229.68 0c142.09,0.46 230.61,74.07 230.61,192.87zm-124.39 0c0,-58.23 -37.74,-92.71 -113.21,-92.71l-100.17 0 0 184.49 100.17 0c75.48,0 113.21,-34.01 113.21,-91.78z"/>
   <path class="fil1" d="M1047.3 2520.02c0,-157.94 122.99,-274.4 290.71,-274.4 166.78,0 290.71,116 290.71,274.4 0,158.4 -123.46,274.4 -290.71,274.4 -167.72,0 -290.71,-116.94 -290.71,-274.4zm457.03 0c0,-101.1 -71.28,-170.05 -166.32,-170.05 -95.04,0 -166.32,68.95 -166.32,170.05 0,101.09 71.28,170.05 166.32,170.05 95.04,-0.47 166.32,-69.42 166.32,-170.05z"/>
   <polygon class="fil1" points="2786.31,2254.47 2907.86,2254.47 2907.61,2785.57 2784.62,2785.57 "/>
   <path class="fil1" d="M3413 2671.43l-246.45 0 -47.05 113.67 -125.79 0 236.67 -531.1 121.6 0 237.6 531.1 -129.05 0 -47.52 -113.67zm-38.67 -93.18l-84.32 -203.12 -84.32 203.12 168.65 0z"/>
   <path class="fil2" d="M2683.05 2514.47c0,88.04 -23.91,155.41 -71.73,201.99 -47.82,46.57 -116.56,69.86 -206.34,69.86l-161.52 0 0 -533.48 177.21 0c82.94,0 147.44,23.04 193.39,68.99 45.95,45.95 68.99,110.21 68.99,192.65zm-124.4 3.4c0,-41.33 -10.35,-72.39 -31.06,-93.32 -20.71,-20.93 -51.55,-31.42 -92.36,-31.42l-67.37 0 0 252.9 58.64 0c43.92,0 76.9,-10.8 99.01,-32.39 22.11,-21.59 33.13,-53.54 33.13,-95.77z"/>
   <path class="fil0" d="M1709.33 2784.46l123.61 1.09 1.2 -160.25 69.35 -2.02 121.81 162.24 123.48 0.05 -127.05 -178.76c83.66,-35.67 114.19,-100.61 115.08,-161.98 1.77,-120.38 -89.23,-185.08 -201.4,-190.36l-223.83 0.36 -2.26 529.64zm125.99 -270.34l93.6 0.6c41.72,0.26 79.57,-26.3 82.32,-70.77 3.3,-53.3 -37.84,-80.15 -82.23,-79.75l-93.34 0.83 -0.35 149.08z"/>
  </g>
 </g>
</svg>
